hdl/sim/tb_BR_PRED/tb_BR_PRED.vcd
$date
	Wed Mar 11 09:04:56 2026
$end
$version
	Icarus Verilog
$end
$timescale
	1ps
$end
$scope module tb_BR_PRED $end
$var reg 1 ! active $end
$var reg 1 " clk $end
$var reg 1 # rst $end
$var reg 1 $ taken $end
$var integer 32 % i [31:0] $end
$scope module DUT $end
$var wire 1 ! ACT $end
$var wire 1 $ BR_TAKEN $end
$var wire 1 " CLK $end
$var wire 1 # RST $end
$var reg 2 & NS [1:0] $end
$var reg 2 ' PS [1:0] $end
$var reg 1 ( TAKE_BR $end
$upscope $end
$scope task take_branch $end
$upscope $end
$upscope $end
$enddefinitions $end
$comment Show the parameter values. $end
$dumpall
$end
#0
$dumpvars
x(
bx '
bx &
b0 %
0$
1#
0"
0!
$end
#5000
b0 &
0(
b0 '
1"
#10000
0#
0"
#15000
1"
#20000
0"
#25000
1"
#30000
1$
0"
#35000
1"
#40000
0$
0"
#45000
1"
#50000
1!
0"
#55000
1"
#60000
0!
0"
#65000
1"
#70000
b1 &
1!
1$
0"
#75000
b10 &
b1 '
1"
#80000
b1 &
0!
0$
0"
#85000
1"
#90000
b10 &
1!
1$
0"
#95000
b11 &
1(
b10 '
1"
#100000
b10 &
0!
0$
0"
#105000
1"
#110000
b1 &
1!
0"
#115000
b0 &
0(
b1 '
1"
#120000
b1 &
0!
0"
#125000
1"
#130000
b0 &
1!
0"
#135000
b0 '
1"
#140000
0!
0"
#145000
1"
#150000
0"
b1 %
#155000
1"
#160000
0"
#165000
1"
#170000
1$
0"
#175000
1"
#180000
0$
0"
#185000
1"
#190000
1!
0"
#195000
1"
#200000
0!
0"
#205000
1"
#210000
b1 &
1!
1$
0"
#215000
b10 &
b1 '
1"
#220000
b1 &
0!
0$
0"
#225000
1"
#230000
b10 &
1!
1$
0"
#235000
b11 &
1(
b10 '
1"
#240000
b10 &
0!
0$
0"
#245000
1"
#250000
b1 &
1!
0"
#255000
b0 &
0(
b1 '
1"
#260000
b1 &
0!
0"
#265000
1"
#270000
b0 &
1!
0"
#275000
b0 '
1"
#280000
0!
0"
#285000
1"
#290000
0"
b10 %
#295000
1"
#300000
0"
#305000
1"
#310000
1$
0"
#315000
1"
#320000
0$
0"
#325000
1"
#330000
1!
0"
#335000
1"
#340000
0!
0"
#345000
1"
#350000
b1 &
1!
1$
0"
#355000
b10 &
b1 '
1"
#360000
b1 &
0!
0$
0"
#365000
1"
#370000
b10 &
1!
1$
0"
#375000
b11 &
1(
b10 '
1"
#380000
b10 &
0!
0$
0"
#385000
1"
#390000
b1 &
1!
0"
#395000
b0 &
0(
b1 '
1"
#400000
b1 &
0!
0"
#405000
1"
#410000
b0 &
1!
0"
#415000
b0 '
1"
#420000
0!
0"
#425000
1"
#430000
0"
b11 %
#435000
1"
#440000
0"
#445000
1"
#450000
1$
0"
#455000
1"
#460000
0$
0"
#465000
1"
#470000
1!
0"
#475000
1"
#480000
0!
0"
#485000
1"
#490000
b1 &
1!
1$
0"
#495000
b10 &
b1 '
1"
#500000
b1 &
0!
0$
0"
#505000
1"
#510000
b10 &
1!
1$
0"
#515000
b11 &
1(
b10 '
1"
#520000
b10 &
0!
0$
0"
#525000
1"
#530000
b1 &
1!
0"
#535000
b0 &
0(
b1 '
1"
#540000
b1 &
0!
0"
#545000
1"
#550000
b0 &
1!
0"
#555000
b0 '
1"
#560000
0!
0"
#565000
1"
#570000
0"
b100 %
#575000
1"
#580000
0"
#585000
1"
#590000
1$
0"
#595000
1"
#600000
0$
0"
#605000
1"
#610000
1!
0"
#615000
1"
#620000
0!
0"
#625000
1"
#630000
b1 &
1!
1$
0"
#635000
b10 &
b1 '
1"
#640000
b1 &
0!
0$
0"
#645000
1"
#650000
b10 &
1!
1$
0"
#655000
b11 &
1(
b10 '
1"
#660000
b10 &
0!
0$
0"
#665000
1"
#670000
b1 &
1!
0"
#675000
b0 &
0(
b1 '
1"
#680000
b1 &
0!
0"
#685000
1"
#690000
b0 &
1!
0"
#695000
b0 '
1"
#700000
0!
0"
#705000
1"
#710000
0"
b101 %
#715000
1"
#720000
0"
#725000
1"
#730000
1$
0"
#735000
1"
#740000
0$
0"
#745000
1"
#750000
1!
0"
#755000
1"
#760000
0!
0"
#765000
1"
#770000
b1 &
1!
1$
0"
#775000
b10 &
b1 '
1"
#780000
b1 &
0!
0$
0"
#785000
1"
#790000
b10 &
1!
1$
0"
#795000
b11 &
1(
b10 '
1"
#800000
b10 &
0!
0$
0"
#805000
1"
#810000
b1 &
1!
0"
#815000
b0 &
0(
b1 '
1"
#820000
b1 &
0!
0"
#825000
1"
#830000
b0 &
1!
0"
#835000
b0 '
1"
#840000
0!
0"
#845000
1"
#850000
0"
b110 %
#855000
1"
#860000
0"
#865000
1"
#870000
1$
0"
#875000
1"
#880000
0$
0"
#885000
1"
#890000
1!
0"
#895000
1"
#900000
0!
0"
#905000
1"
#910000
b1 &
1!
1$
0"
#915000
b10 &
b1 '
1"
#920000
b1 &
0!
0$
0"
#925000
1"
#930000
b10 &
1!
1$
0"
#935000
b11 &
1(
b10 '
1"
#940000
b10 &
0!
0$
0"
#945000
1"
#950000
b1 &
1!
0"
#955000
b0 &
0(
b1 '
1"
#960000
b1 &
0!
0"
#965000
1"
#970000
b0 &
1!
0"
#975000
b0 '
1"
#980000
0!
0"
#985000
1"
#990000
0"
b111 %
#995000
1"
#1000000
0"
#1005000
1"
#1010000
1$
0"
#1015000
1"
#1020000
0$
0"
#1025000
1"
#1030000
1!
0"
#1035000
1"
#1040000
0!
0"
#1045000
1"
#1050000
b1 &
1!
1$
0"
#1055000
b10 &
b1 '
1"
#1060000
b1 &
0!
0$
0"
#1065000
1"
#1070000
b10 &
1!
1$
0"
#1075000
b11 &
1(
b10 '
1"
#1080000
b10 &
0!
0$
0"
#1085000
1"
#1090000
b1 &
1!
0"
#1095000
b0 &
0(
b1 '
1"
#1100000
b1 &
0!
0"
#1105000
1"
#1110000
b0 &
1!
0"
#1115000
b0 '
1"
#1120000
0!
0"
#1125000
1"
#1130000
0"
b1000 %
