hdl/sim/tb_REG_FILE/tb_REG_FILE.vcd
$date
	Wed Mar 11 15:46:42 2026
$end
$version
	Icarus Verilog
$end
$timescale
	1ps
$end
$scope module tb_REG_FILE $end
$var wire 32 ! sp [31:0] $end
$var wire 32 " gp [31:0] $end
$var wire 33 # RS2 [32:0] $end
$var wire 33 $ RS1 [32:0] $end
$var parameter 32 % XLEN $end
$var parameter 32 & XWID $end
$var reg 5 ' ADDR1 [4:0] $end
$var reg 5 ( ADDR2 [4:0] $end
$var reg 1 ) CLK $end
$var reg 5 * WADDR [4:0] $end
$var reg 33 + WDATA [32:0] $end
$var reg 1 , WEN $end
$var integer 32 - i [31:0] $end
$scope module dut $end
$var wire 5 . ADDR1 [4:0] $end
$var wire 5 / ADDR2 [4:0] $end
$var wire 1 ) CLK $end
$var wire 5 0 WADDR [4:0] $end
$var wire 33 1 WDATA [32:0] $end
$var wire 1 , WEN $end
$var wire 33 2 RS2 [32:0] $end
$var wire 33 3 RS1 [32:0] $end
$var parameter 32 4 XLEN $end
$var parameter 32 5 XWID $end
$upscope $end
$upscope $end
$enddefinitions $end
$comment Show the parameter values. $end
$dumpall
b100000 5
b100000 4
b100000 &
b100000 %
$end
#0
$dumpvars
b0 3
b0 2
b0 1
b0 0
b0 /
b0 .
b0 -
x,
b0 +
b0 *
0)
b0 (
b0 '
b0 $
b0 #
b1000000000000000 "
b1111111111111111 !
$end
#5000
1,
b10010010000101010011010100100100 +
b10010010000101010011010100100100 1
1)
#10000
0)
#15000
0,
1)
#20000
0)
#25000
1)
#30000
0)
#35000
1)
#40000
0)
#45000
1,
b10 *
b10 0
b1000000100010010101111010000001 +
b1000000100010010101111010000001 1
1)
#50000
0)
#55000
b1000000100010010101111010000001 !
1)
#60000
0)
#65000
b11 *
b11 0
b100100001001101011000001001 +
b100100001001101011000001001 1
b1 -
1)
#70000
0)
#75000
b100100001001101011000001001 "
1)
#80000
0)
#85000
b100 *
b100 0
b110001111100000101011001100011 +
b110001111100000101011001100011 1
b10 -
1)
#90000
0)
#95000
1)
#100000
0)
#105000
b110 *
b110 0
b11000110110111111001100110001101 +
b11000110110111111001100110001101 1
b100 -
1)
#110000
0)
#115000
1)
#120000
0)
#125000
b111 *
b111 0
b110010110000101000010001100101 +
b110010110000101000010001100101 1
b101 -
1)
#130000
0)
#135000
1)
#140000
0)
#145000
b1000 *
b1000 0
b1001001101110101001000010010 +
b1001001101110101001000010010 1
b110 -
1)
#150000
0)
#155000
1)
#160000
0)
#165000
b1001 *
b1001 0
b10000000111100111110001100000001 +
b10000000111100111110001100000001 1
b111 -
1)
#170000
0)
#175000
1)
#180000
0)
#185000
b1010 *
b1010 0
b10000110110101111100110100001101 +
b10000110110101111100110100001101 1
b1000 -
1)
#190000
0)
#195000
1)
#200000
0)
#205000
b1011 *
b1011 0
b10111011001000111111000101110110 +
b10111011001000111111000101110110 1
b1001 -
1)
#210000
0)
#215000
1)
#220000
0)
#225000
b1100 *
b1100 0
b10011110100011011100110100111101 +
b10011110100011011100110100111101 1
b1010 -
1)
#230000
0)
#235000
1)
#240000
0)
#245000
b1101 *
b1101 0
b11110110110101000101011111101101 +
b11110110110101000101011111101101 1
b1011 -
1)
#250000
0)
#255000
1)
#260000
0)
#265000
b1110 *
b1110 0
b11000110001011011111011110001100 +
b11000110001011011111011110001100 1
b1100 -
1)
#270000
0)
#275000
1)
#280000
0)
#285000
b1111 *
b1111 0
b11111100111111011110100111111001 +
b11111100111111011110100111111001 1
b1101 -
1)
#290000
0)
#295000
1)
#300000
0)
#305000
b10000 *
b10000 0
b1100011001101110010010011000110 +
b1100011001101110010010011000110 1
b1110 -
1)
#310000
0)
#315000
1)
#320000
0)
#325000
b10001 *
b10001 0
b1100010111101111000010011000101 +
b1100010111101111000010011000101 1
b1111 -
1)
#330000
0)
#335000
1)
#340000
0)
#345000
b10010 *
b10010 0
b1010101000100111101001010101010 +
b1010101000100111101001010101010 1
b10000 -
1)
#350000
0)
#355000
1)
#360000
0)
#365000
b10011 *
b10011 0
b11110010101011111111011111100101 +
b11110010101011111111011111100101 1
b10001 -
1)
#370000
0)
#375000
1)
#380000
0)
#385000
b10100 *
b10100 0
b111011110100100111001001110111 +
b111011110100100111001001110111 1
b10010 -
1)
#390000
0)
#395000
1)
#400000
0)
#405000
b10101 *
b10101 0
b1001001100101101011000010010 +
b1001001100101101011000010010 1
b10011 -
1)
#410000
0)
#415000
1)
#420000
0)
#425000
b11000111111011001101101110001111 +
b11000111111011001101101110001111 1
b10100 -
1)
#430000
0)
#435000
0,
1)
